{
  "name": "Point",
  "options": {
    "idInjection": false,
    "postgresql": {
      "schema": "public",
      "table": "points"
    },
    "relations": {}
  },
  "properties": {
    "id": {
      "type": "Number",
      "required": false,
      "length": null,
      "precision": 32,
      "scale": 0,
      "id": 1,
      "postgresql": {
        "columnName": "id",
        "dataType": "integer",
        "dataLength": null,
        "dataPrecision": 32,
        "dataScale": 0,
        "nullable": "NO"
      }
    },
    "lat": {
      "type": "Number",
      "required": true,
      "length": null,
      "precision": 53,
      "scale": null,
      "postgresql": {
        "columnName": "lat",
        "dataType": "double precision",
        "dataLength": null,
        "dataPrecision": 53,
        "dataScale": null,
        "nullable": "NO"
      }
    },
    "long": {
      "type": "Number",
      "required": true,
      "length": null,
      "precision": 53,
      "scale": null,
      "postgresql": {
        "columnName": "long",
        "dataType": "double precision",
        "dataLength": null,
        "dataPrecision": 53,
        "dataScale": null,
        "nullable": "NO"
      }
    },
    "description": {
      "type": "String",
      "required": true,
      "length": null,
      "precision": null,
      "scale": null,
      "postgresql": {
        "columnName": "description",
        "dataType": "text",
        "dataLength": null,
        "dataPrecision": null,
        "dataScale": null,
        "nullable": "NO"
      }
    }
  }
}