{
  "pointsDS": {
    "host": "${POINTS_DB_PORT_5432_TCP_ADDR}",
    "port": "${POINTS_DB_PORT_5432_TCP_PORT}",
    "database": "${POINTS_DB_NAME}",
    "username": "${POINTS_DB_USER}",
    "password": "${POINTS_DB_PASS}",
    "name": "pointsDS",
    "connector": "postgresql",
    "schema": "public"
  }
}
